Tubs {
x0=0,
y0=0,
z0=0,
rmin=4,
rmax=5,
z=250,
material=CarbonSteel,
temperature=1
}


Cons {
x0=0,
y0=0,
z0=375,
rmin1=10
rmax1=300
rmin2=10
rmax2=200
z=250
material=Lead,
phi0=0,
dphi=360,
temperature=1
}
